R Notebook
…
1.4 Remove the bad samples

ps <- prune_samples(sample_sums(ps) > 0,ps)
ps <- prune_taxa(taxa_sums(ps) > 0, ps)

2 Abundance prior to chloroplast removal

ps_melt <- psmelt(ps)
prefilter_abun <- ps_melt %>%
  group_by(Source, description) %>%
  summarise(TotalCount = sum(Abundance)) %>%
  mutate(Day = str_sub(description, 5,6), filter = "NO")
prefilter_abun

## # A tibble: 30 x 5
## # Groups:   Source [2]
##    Source description TotalCount   Day filter
##     <chr>      <fctr>      <int> <chr>  <chr>
##  1    DNA CJ4D01AgDNA      84116    01     NO
##  2    DNA CJ4D01BgDNA     115571    01     NO
##  3    DNA CJ4D01CgDNA     118809    01     NO
##  4    DNA CJ4D03AgDNA      98937    03     NO
##  5    DNA CJ4D03BgDNA      79181    03     NO
##  6    DNA CJ4D03CgDNA     122694    03     NO
##  7    DNA CJ4D10AgDNA      98105    10     NO
##  8    DNA CJ4D10BgDNA      66038    10     NO
##  9    DNA CJ4D10CgDNA      61384    10     NO
## 10    DNA CJ4D30AgDNA      68125    30     NO
## # ... with 20 more rows
…
## phyloseq-class experiment-level object
## otu_table()   OTU Table:         [ 96 taxa and 30 samples ]
## sample_data() Sample Data:       [ 30 samples by 7 sample variables ]
## tax_table()   Taxonomy Table:    [ 96 taxa by 7 taxonomic ranks ]

3 Abundance after chloroplast removal

ps_melt <- psmelt(ps)
postfilter_abun <- ps_melt %>%
  group_by(Source, description) %>%
  summarise(TotalCount = sum(Abundance)) %>%
  mutate(Day = str_sub(description, 5,6), filter = "YES")
postfilter_abun

## # A tibble: 30 x 5
## # Groups:   Source [2]
##    Source description TotalCount   Day filter
##     <chr>      <fctr>      <int> <chr>  <chr>
##  1    DNA CJ4D01AgDNA       4287    01    YES
##  2    DNA CJ4D01BgDNA       5828    01    YES
##  3    DNA CJ4D01CgDNA       6312    01    YES
##  4    DNA CJ4D03AgDNA      18628    03    YES
##  5    DNA CJ4D03BgDNA      21920    03    YES
##  6    DNA CJ4D03CgDNA      31771    03    YES
##  7    DNA CJ4D10AgDNA      39577    10    YES
##  8    DNA CJ4D10BgDNA      18613    10    YES
##  9    DNA CJ4D10CgDNA      25444    10    YES
## 10    DNA CJ4D30AgDNA      38458    30    YES
## # ... with 20 more rows
…
